<svg width="12.7" height="12.7" xmlns="http://www.w3.org/2000/svg">

 <g>
  <title>background</title>
  <rect fill="none" id="canvas_background" height="402" width="582" y="-1" x="-1"/>
 </g>
 <g>
  <title>Layer 1</title>
  <path fill="#fcfcfc" stroke-width="0.070556" stroke-linecap="round" stroke-linejoin="round" stroke-miterlimit="4" stroke-dashoffset="0" id="rect4487" d="m2.82222,2.822212l0,1.41111l7.05556,0l0,-1.41111l-7.05556,0zm0,2.82222l0,1.41112l7.05556,0l0,-1.41112l-7.05556,0zm0,2.82223l0,1.41111l7.05556,0l0,-1.41111l-7.05556,0z"/>
 </g>
</svg>